-------------------------------------------------------------------------------
Test set: com.carpe.motm.MotmApplicationTests
-------------------------------------------------------------------------------
Tests run: 1, Failures: 0, Errors: 0, Skipped: 0, Time elapsed: 3.372 s - in com.carpe.motm.MotmApplicationTests
